<?xml version = "1.0"?>
<log_entry>
<day = 003/>
<month = 28/>
<year = 2012/>
<hour = 10/>
<min = 38/>
<atm = 200004/>
<desc = The peripheral device is busy/>
</log_entry>
<?xml version = "1.0"?>
<log_entry>
<day = 003/>
<month = 28/>
<year = 2012/>
<hour = 10/>
<min = 45/>
<atm = 260004/>
<desc = Response of device not completely received/>
</log_entry>
<?xml version = "1.0"?>
<log_entry>
<day = 003/>
<month = 28/>
<year = 2012/>
<hour = 10/>
<min = 52/>
<atm = 420004/>
<desc = Device asked for termination/>
</log_entry>
<?xml version = "1.0"?>
<log_entry>
<day = 003/>
<month = 28/>
<year = 2012/>
<hour = 13/>
<min = 39/>
<atm = 250004/>
<desc = Application started/>
</log_entry>
<?xml version = "1.0"?>
<log_entry>
<day = 003/>
<month = 28/>
<year = 2012/>
<hour = 13/>
<min = 41/>
<atm = 000004/>
<desc = Ports Verification/>
</log_entry>
<?xml version = "1.0"?>
<log_entry>
<day = 003/>
<month = 28/>
<year = 2012/>
<hour = 13/>
<min = 41/>
<atm = 390004/>
<desc = Communication Offline/>
</log_entry>
<?xml version = "1.0"?>
<log_entry>
<day = 004/>
<month = 03/>
<year = 2012/>
<hour = 12/>
<min = 15/>
<atm = 000004/>
<desc = Device Status Change/>
</log_entry>
<?xml version = "1.0"?>
<log_entry>
<day = 004/>
<month = 03/>
<year = 2012/>
<hour = 12/>
<min = 16/>
<atm = 000004/>
<desc = Low Cash alert/>
</log_entry>
<?xml version = "1.0"?>
<log_entry>
<day = 004/>
<month = 03/>
<year = 2012/>
<hour = 12/>
<min = 20/>
<atm = 000004/>
<desc = Running Out of notes in cassette 50/>
</log_entry>
<?xml version = "1.0"?>
<log_entry>
<day = 004/>
<month = 03/>
<year = 2012/>
<hour = 12/>
<min = 20/>
<atm = 000004/>
<desc = Cassette 50 empty/>
</log_entry>
<?xml version = "1.0"?>
<log_entry>
<day = 004/>
<month = 03/>
<year = 2012/>
<hour = 14/>
<min = 50/>
<atm = 250004/>
<desc = Application started/>
</log_entry>
<?xml version = "1.0"?>
<log_entry>
<day = 004/>
<month = 04/>
<year = 2012/>
<hour = 15/>
<min = 35/>
<atm = 200004/>
<desc = Service mode entered/>
</log_entry>
<?xml version = "1.0"?>
<log_entry>
<day = 004/>
<month = 04/>
<year = 2012/>
<hour = 15/>
<min = 48/>
<atm = 000004/>
<desc = Safe door opened/>
</log_entry>
